{
  "project_info": {
    "project_number": "891196473559",
    "firebase_url": "https://crow-web-push.firebaseio.com",
    "project_id": "crow-web-push",
    "storage_bucket": "crow-web-push.appspot.com"
  },
  "client": [
    {
      "client_info": {
        "mobilesdk_app_id": "1:891196473559:android:e5f4ff4997c21e6d",
        "android_client_info": {
          "package_name": "org.nativescript.CrowDashboard"
        }
      },
      "oauth_client": [
        {
          "client_id": "891196473559-o8nu4ovonc6b8s6fkbbo6e6oq80e8a8b.apps.googleusercontent.com",
          "client_type": 3
        }
      ],
      "api_key": [
        {
          "current_key": "AIzaSyAsQgEJRM9mrle4TPFvTzcYsSfRGpQksF8"
        }
      ],
      "services": {
        "analytics_service": {
          "status": 1
        },
        "appinvite_service": {
          "status": 1,
          "other_platform_oauth_client": []
        },
        "ads_service": {
          "status": 2
        }
      }
    }
  ],
  "configuration_version": "1"
}